{
  "project_info": {
    "project_number": "335201527070",
    "firebase_url": "https://hexa-sudoku-47038521.firebaseio.com",
    "project_id": "hexa-sudoku-47038521",
    "storage_bucket": "hexa-sudoku-47038521.appspot.com"
  },
  "client": [
    {
      "client_info": {
        "mobilesdk_app_id": "1:335201527070:android:27875eab80890f0c",
        "android_client_info": {
          "package_name": "com.sudoku.hexa.puzzle"
        }
      },
      "oauth_client": [
        {
          "client_id": "335201527070-r157rruj7cd0gstfjf7pvitgod3scd4b.apps.googleusercontent.com",
          "client_type": 3
        }
      ],
      "api_key": [
        {
          "current_key": "AIzaSyCFih6VPLiJ6GNf0xayNcmYYdZtvcwVpow"
        }
      ],
      "services": {
        "analytics_service": {
          "status": 1
        },
        "appinvite_service": {
          "status": 1,
          "other_platform_oauth_client": []
        },
        "ads_service": {
          "status": 2
        }
      }
    }
  ],
  "configuration_version": "1"
}